{
  "development": {
    "server": {
      "ipAddress": "0.0.0.0",
      "port": 4000,
      "publicFolder": "dist/public",
      "viewsFolder": "dist/views"
    },
    "remoteServer": {
      "https": false,
      "ip": "0.0.0.0",
      "port": 3000,
      "machineKey": "065443c0-8077-11e9-bef8-47a3bfe5dee9"
    },
    "task": {
      "active": true,
      "schedule": "0 0 * ? * *",
      "logs": "./dist/logs",
      "output": "./dist/temp"
    },
    "ftpList": [
      {
        "key": "alba-ftp-mp-folder",
        "host": "albaelektronik.com",
        "user": "hketen@albaelektronik.com",
        "password": "cIrrex-qagmy7-guvdib",
        "port": 21,
        "dest": "/demo.albaelektronik.com/data-mp"
      }
    ],
    "dbList": [
      {
        "key": "firebird_db",
        "type": "firebird",
        "host": "localhost",
        "port": 3050,
        "database": "/home/ubuntu/mpapp/demo-data/gida_demo_13062016.FDB",
        "user": "sysdba",
        "password": "masterkey"
      },
      {
        "key": "mssql_db",
        "type": "mssql",
        "host": "192.168.1.100",
        "port": 1433,
        "database": "Sentez_Live",
        "user": "sa",
        "password": "1"
      },
      {
        "key": "mysql_db",
        "type": "mysql",
        "host": "remotemysql.com",
        "port": 3306,
        "database": "kjviLkWVT2",
        "user": "kjviLkWVT2",
        "password": "yeFlY2T2JF"
      },
      {
        "key": "json_folder",
        "type": "json",
        "dir": "./dist/json_data_folder"
      }
    ],
    "files": {
      "uploadPath": "/dist/uploads",
      "supportedExt": [
        {
          "ext": ".jpg",
          "size": "512KB"
        },
        {
          "ext": ".jpeg",
          "size": "512KB"
        },
        {
          "ext": ".png",
          "size": "1MB"
        },
        {
          "ext": ".mp4",
          "size": "25MB"
        }
      ]
    }
  },
  "production": {
    "server": {
      "ipAddress": "0.0.0.0",
      "port": 4000,
      "publicFolder": "public",
      "viewsFolder": "views"
    },
    "remoteServer": {
      "https": true,
      "ip": "main-server.hakanketen.com",
      "port": 443,
      "machineKey": "065443c0-8077-11e9-bef8-47a3bfe5dee9"
    },
    "task": {
      "active": true,
      "schedule": "0 0 * ? * *",
      "logs": "./logs",
      "output": "./temp"
    },
    "ftpList": [
      {
        "key": "alba-ftp-mp-folder",
        "host": "albaelektronik.com",
        "user": "hketen@albaelektronik.com",
        "password": "cIrrex-qagmy7-guvdib",
        "port": 21,
        "dest": "/demo.albaelektronik.com/data-mp"
      }
    ],
    "dbList": [
      {
        "key": "firebird_db",
        "type": "firebird",
        "host": "localhost",
        "port": 3050,
        "database": "/root/mp-api/demo-data/gida_demo_13062016.FDB",
        "user": "sysdba",
        "password": "masterkey"
      },
      {
        "key": "mssql_db",
        "type": "mssql",
        "host": "192.168.1.100",
        "port": 1433,
        "database": "Sentez_Live",
        "user": "sa",
        "password": "1"
      },
      {
        "key": "mysql_db",
        "type": "mysql",
        "host": "remotemysql.com",
        "port": 3306,
        "database": "kjviLkWVT2",
        "user": "kjviLkWVT2",
        "password": "yeFlY2T2JF"
      },
      {
        "key": "json_folder",
        "type": "json",
        "dir": "./json_data_folder"
      }
    ],
    "files": {
      "uploadPath": "uploads",
      "supportedExt": [
        {
          "ext": ".jpg",
          "size": "512KB"
        },
        {
          "ext": ".jpeg",
          "size": "512KB"
        },
        {
          "ext": ".png",
          "size": "1MB"
        },
        {
          "ext": ".mp4",
          "size": "25MB"
        }
      ]
    }
  }
}
